[
    {
        "key": "group_60e86a3a2731f",
        "title": "Case studies",
        "fields": [
            {
                "key": "field_60e8706b9e7b6",
                "label": "Case study",
                "name": "cstudy",
                "type": "repeater",
                "instructions": "",
                "required": 0,
                "conditional_logic": 0,
                "wrapper": {
                    "width": "",
                    "class": "",
                    "id": ""
                },
                "collapsed": "field_60e870829e7b7",
                "min": 0,
                "max": 0,
                "layout": "table",
                "button_label": "",
                "sub_fields": [
                    {
                        "key": "field_60e870829e7b7",
                        "label": "Tytuł",
                        "name": "title",
                        "type": "text",
                        "instructions": "",
                        "required": 0,
                        "conditional_logic": 0,
                        "wrapper": {
                            "width": "",
                            "class": "",
                            "id": ""
                        },
                        "default_value": "",
                        "placeholder": "",
                        "prepend": "",
                        "append": "",
                        "maxlength": ""
                    },
                    {
                        "key": "field_60e8709e9e7b8",
                        "label": "Typ",
                        "name": "type",
                        "type": "checkbox",
                        "instructions": "",
                        "required": 0,
                        "conditional_logic": 0,
                        "wrapper": {
                            "width": "",
                            "class": "",
                            "id": ""
                        },
                        "choices": {
                            "e-commerce": "E-Commerce",
                            "websites": "Websites",
                            "design": "Design",
                            "seo": "SEO"
                        },
                        "allow_custom": 0,
                        "default_value": [],
                        "layout": "vertical",
                        "toggle": 0,
                        "return_format": "array",
                        "save_custom": 0
                    },
                    {
                        "key": "field_60e870af9e7b9",
                        "label": "Zdjęcie",
                        "name": "photo",
                        "type": "image",
                        "instructions": "",
                        "required": 0,
                        "conditional_logic": 0,
                        "wrapper": {
                            "width": "",
                            "class": "",
                            "id": ""
                        },
                        "return_format": "url",
                        "preview_size": "large",
                        "library": "all",
                        "min_width": "",
                        "min_height": "",
                        "min_size": "",
                        "max_width": "",
                        "max_height": "",
                        "max_size": "",
                        "mime_types": ""
                    },
                    {
                        "key": "field_60edaa8d7361d",
                        "label": "Link text",
                        "name": "link_text",
                        "type": "text",
                        "instructions": "",
                        "required": 0,
                        "conditional_logic": 0,
                        "wrapper": {
                            "width": "",
                            "class": "",
                            "id": ""
                        },
                        "default_value": "",
                        "placeholder": "",
                        "prepend": "",
                        "append": "",
                        "maxlength": ""
                    },
                    {
                        "key": "field_60edbddf41c02",
                        "label": "Link url",
                        "name": "link_url",
                        "type": "url",
                        "instructions": "",
                        "required": 0,
                        "conditional_logic": 0,
                        "wrapper": {
                            "width": "",
                            "class": "",
                            "id": ""
                        },
                        "default_value": "",
                        "placeholder": ""
                    },
                    {
                        "key": "field_60edaab17361e",
                        "label": "Link target",
                        "name": "link_target",
                        "type": "true_false",
                        "instructions": "",
                        "required": 0,
                        "conditional_logic": 0,
                        "wrapper": {
                            "width": "",
                            "class": "",
                            "id": ""
                        },
                        "message": "Link zewnętrzny",
                        "default_value": 0,
                        "ui": 1,
                        "ui_on_text": "",
                        "ui_off_text": ""
                    }
                ]
            }
        ],
        "location": [
            [
                {
                    "param": "block",
                    "operator": "==",
                    "value": "acf\/cstudies"
                }
            ]
        ],
        "menu_order": 0,
        "position": "normal",
        "style": "default",
        "label_placement": "top",
        "instruction_placement": "label",
        "hide_on_screen": "",
        "active": true,
        "description": ""
    }
]